[
  {
    "any_structures_unsprayed": "no",
    "number_of_structures_sprayed": 30,
    "number_structures_total": 30,
    "recorded_by": "2",
    "visit_type": "mopup"
  },
  {
    "number_of_structures_sprayed":0,
    "number_structures_total": 5,
    "ny_structures_unsprayed": "yes",
    "householdheadname": "name",
    "n_rooms_baby": 1,
    "n_rooms_food": 0,
    "n_rooms_funeral": 0,
    "n_rooms_kitchen": 1,
    "n_rooms_locked": 0,
    "n_rooms_material": 1,
    "n_rooms_nobody": 0,
    "n_rooms_other": 1,
    "n_rooms_patient": 0,
    "n_rooms_refused": 1,
    "recorded_by": "1",
    "visit_type":"first_visit"
  }
]
