[
  {
    "name": "sprayed more than total structures",
    "expression": "numbersprayed_ddt + numbersprayed_delta <= number_sprayable",
    "message": "Total sprayed is less than sprayed with ddt + deltamethrin",
    "type": "warning"
  },
  {
    "name": "sprayed more with ddt than total",
    "expression": "numbersprayed_ddt <= number_sprayable",
    "message": "Sprayed more with DDT than total",
    "type": "error"
  },
  {
    "name": "sprayed more with deltamethrin than total",
    "expression": "numbersprayed_delta <= number_sprayable",
    "message": "Sprayed more with deltamethrin than total",
    "type": "warning"
  },
  {
    "name": "missing_sprayed_structures",
    "precondition": "sprayable_unsprayed == 'no'",
    "expression": "numbersprayed_ddt + numbersprayed_delta == number_sprayable",
    "message": "Total sprayed does not equal `ddt`+ `deltamethrin`.",
    "type": "warning"
  },
  {
    "name": "sprayable_unsprayed",
    "precondition": "sprayable_unsprayed == 'no'",
    "expression": "number_sprayable == numbersprayed_ddt + numbersprayed_delta + number_unsprayed",
    "message": "Number of structures doesn't add up",
    "type": "warning"
  },
  {
    "name": "high_number_of_sprayed",
    "precondition": "sprayable == 'yes'",
    "expression": "number_sprayable < 20",
    "message": "Number of sprayable structures seems high. Please check the value.",
    "type": "warning"
  },
  {
    "name": "population",
    "precondition": "sprayable == 'yes'",
    "expression": " total_population_sprayedrooms <= house_population",
    "message": "More people sleeping in sprayed rooms than population of houshold.",
    "type": "warning"
  }
]
